OHIEC: Resilience - Fishing Pressure prep
…
Stock Assessment Score

assessment_score <- percent_assessed_by_region %>% 
  mutate(target = 1) %>% 
  mutate(score = percent/target,
         score = if_else(score > 1, 1, score)) %>% 
  uncount(13, .id = "n", .remove = F) %>%
  mutate(year = ifelse(n == 1, 2005, n + 2004)) %>%
  select(-n)

assessment_score

## # A tibble: 143 x 8
## # Groups:   rgn_id, rgn_name [11]
##    rgn_id rgn_name caught assessed percent target score  year
##     <dbl> <chr>     <int>    <int>   <dbl>  <dbl> <dbl> <dbl>
##  1      1 Offshore    106       58   0.547      1 0.547  2005
##  2      1 Offshore    106       58   0.547      1 0.547  2006
##  3      1 Offshore    106       58   0.547      1 0.547  2007
##  4      1 Offshore    106       58   0.547      1 0.547  2008
##  5      1 Offshore    106       58   0.547      1 0.547  2009
##  6      1 Offshore    106       58   0.547      1 0.547  2010
##  7      1 Offshore    106       58   0.547      1 0.547  2011
##  8      1 Offshore    106       58   0.547      1 0.547  2012
##  9      1 Offshore    106       58   0.547      1 0.547  2013
## 10      1 Offshore    106       58   0.547      1 0.547  2014
## #  with 133 more rows
…
