OHI-Northeast: Beach Closures
…
Beach days dataset

This dataset sseems to have some errors where many beaches have 0 days listed under both No.of days with Beach Action and No.of days not under beach action. A lot of beaches are also repeated in the year 2011 for unknown reasons.

#this dataset tells us the total number of beach days for each beach/year
ny_beach_days <- read_csv(file.path(dir_anx, ("_raw_data/EPA/beach_days_ny.csv"))) %>%
  filter(County %in% c('BRONX','QUEENS','KINGS','SUFFOLK','NASSAU','RICHMOND','WESTCHESTER')) #ocean counties
  
ny_beach_days %>% filter(`Beach Name` == "BEEKMAN BEACH")  

## # A tibble: 125 x 11
##    State  Year `Beach ID` `Beach Name` County `Beach Status` Monitored
##    <chr> <dbl> <chr>      <chr>        <chr>  <chr>          <chr>    
##  1 NY     2014 NY401633   BEEKMAN BEA NASSAU Reporting      -        
##  2 NY     2013 NY401633   BEEKMAN BEA NASSAU Reporting      -        
##  3 NY     2012 NY401633   BEEKMAN BEA NASSAU Reporting      -        
##  4 NY     2011 NY401633   BEEKMAN BEA NASSAU Reporting      -        
##  5 NY     2011 NY401633   BEEKMAN BEA NASSAU Reporting      -        
##  6 NY     2011 NY401633   BEEKMAN BEA NASSAU Reporting      -        
##  7 NY     2011 NY401633   BEEKMAN BEA NASSAU Reporting      -        
##  8 NY     2011 NY401633   BEEKMAN BEA NASSAU Reporting      -        
##  9 NY     2011 NY401633   BEEKMAN BEA NASSAU Reporting      -        
## 10 NY     2011 NY401633   BEEKMAN BEA NASSAU Reporting      -        
## #  with 115 more rows, and 4 more variables: `No. of DaysUnderBeach
## #   Action` <dbl>, `Percent DaysUndera BeachAction` <dbl>, `No. of DaysNot
## #   UnderBeach Action` <dbl>, `Percent DaysNot Undera BeachAction` <dbl>
…
